filesize,timecreated,timemodified,filename,filepath,rating
470545,1346982311,1346982332,ARCHIVO1.pdf,/,451
464855,1347135315,1347143232,ARCHIVO2.pdf,/,406
977824,1347146451,1347146451,ARCHIVO3.pdf,/,200
10745,1347818282,1347818282,ARCHIVO4docx,/,300
192035,1347818665,1347818665,ARCHIVO5.pdf,/,180
283540,1347819163,1347819944,ARCHIVO6.pdf,/,500
283540,1347911394,1347911409,ARCHIVO7.pdf,/,307
660460,1347912242,1347912264,ARCHIVO8.pdf,/,160
551891,1348003247,1348003347,ARCHIVO9.pdf,/,250
75052,1348173821,1348173833,ARCHIVO10.pdf,/,400
620605,1348173783,1348173833,ARCHIVO11.pdf,/,320
239050,1348174424,1348143221,ARCHIVO12.pdf,/,164
793386,1348174287,1348174290,ARCHIVO13.pdf,/,100
793386,1348174287,1348174290,ARCHIVO14.pdf,/,450
146531,1348174186,1348174208,ARCHIVO15.pdf,/,270
75052,1348173821,1348173833,ARCHIVO16.pdf,/,410
106690,1348599775,1348599775,ARCHIVO17.pdf,/,277
620604,1348600689,1348600700,ARCHIVO18.pdf,/,410
358093,1348600698,1348600700,ARCHIVO19.pdf,/,288
137856,1348600293,1348600293,ARCHIVO20.pdf,/,410
220604,1348605459,1348600440,ARCHIVO21.pdf,/,410
358093,1348600698,1348600700,ARCHIVO22.pdf,/,410
620604,1348600689,1348601520,ARCHIVO23.pdf,/,492
358093,1348600698,1348601548,ARCHIVO24.pdf,/,410
130048,1348603420,1348603420,ARCHIVO25.pdf,/,410
358093,1348603612,1348603612,ARCHIVO26.pdf,/,603
139568,1348612376,1348612427,ARCHIVO27.pdf,/tema_1/sesion_1/recursos_s1/,410
175126,1348612406,1348612427,ARCHIVO28.pdf,/tema_1/sesion_1/recursos_s1/,410
59392,1348612423,1348612427,ARCHIVO29.pdf,/tema_1/sesion_1/recursos_s1/,410
139568,1348612376,1348612427,ARCHIVO30.pdf,/,543
138739,1348616214,1348616217,ARCHIVO31.pdf,/tema_1/sesion_2/recursos_s2/,176
116727,1348616271,1348616275,ARCHIVO32.pdf,/tema_1/sesion_3/recursos_s3/,410
138739,1348616214,1348616217,ARCHIVO33.pdf,/,176
116727,1348616271,1348616275,ARCHIVO34.pdf,/,543
116727,1348616271,1348616275,ARCHIVO35.pdf,/,176
10009,1348618433,1348618231,ARCHIVO36.pdf,/tema_1/sesion_2/recursos_s2/,410
523326,1348618711,1348618748,ARCHIVO37.pdf,/tema_1/sesion_2/recursos_s2/,324
17652,1348618711,1348618748,ARCHIVO38.pdf,/tema_1/sesion_2/recursos_s2/,600
75446,1348618711,1348618748,ARCHIVO39.pdf,/tema_1/sesion_2/recursos_s2/,543
33850,1348618711,1348618748,ARCHIVO40.pdf,/tema_1/sesion_2/recursos_s2/,176
232305,1348618711,1348618748,ARCHIVO41.pdf,/tema_1/sesion_3/recursos_s3/,398
33147,1348618711,1348618748,ARCHIVO42.pdf,/tema_1/sesion_3/recursos_s3/,410
29976,1348618711,1348618748,ARCHIVO43.pdf,/tema_1/sesion_3/recursos_s3/,448
20877,1348618711,1348618748,ARCHIVO44.pdf,/tema_1/sesion_1/recursos_s1/,410
27887,1348618711,1348618748,ARCHIVO45.pdf,/tema_1/sesion_1/recursos_s1/,480
182431,1348618711,1348618748,ARCHIVO46.pdf,/tema_1/sesion_1/recursos_s1/,670
372009,1348618711,1348618748,ARCHIVO47.pdf,/,410
182431,1348618711,1348618748,ARCHIVO48.pdf,/,500
20877,1348618711,1348618748,ARCHIVO49.pdf,/,521
27887,1348618711,1348618748,ARCHIVO50.pdf,/,190
372009,1348618711,1348618748,ARCHIVO51.pdf,/,490
